mode: set
petstore/internal/repository/pet/pet.go:19.66,25.2 2 1
petstore/internal/repository/pet/pet.go:27.85,35.39 6 1
petstore/internal/repository/pet/pet.go:45.5,47.19 3 1
petstore/internal/repository/pet/pet.go:51.5,51.15 1 1
petstore/internal/repository/pet/pet.go:35.39,38.46 3 1
petstore/internal/repository/pet/pet.go:41.9,42.39 2 1
petstore/internal/repository/pet/pet.go:38.46,39.21 1 1
petstore/internal/repository/pet/pet.go:47.19,49.6 1 0
petstore/internal/repository/pet/pet.go:54.85,63.41 6 1
petstore/internal/repository/pet/pet.go:70.5,71.19 2 1
petstore/internal/repository/pet/pet.go:75.5,76.19 2 1
petstore/internal/repository/pet/pet.go:80.5,80.15 1 1
petstore/internal/repository/pet/pet.go:63.41,64.116 1 1
petstore/internal/repository/pet/pet.go:67.9,67.53 1 1
petstore/internal/repository/pet/pet.go:64.116,65.21 1 0
petstore/internal/repository/pet/pet.go:71.19,73.6 1 0
petstore/internal/repository/pet/pet.go:76.19,78.6 1 0
petstore/internal/repository/pet/pet.go:83.104,89.19 5 1
petstore/internal/repository/pet/pet.go:93.5,94.19 2 1
petstore/internal/repository/pet/pet.go:98.5,98.24 1 1
petstore/internal/repository/pet/pet.go:89.19,91.6 1 0
petstore/internal/repository/pet/pet.go:94.19,96.6 1 0
petstore/internal/repository/pet/pet.go:101.95,107.19 5 1
petstore/internal/repository/pet/pet.go:111.5,112.19 2 1
petstore/internal/repository/pet/pet.go:116.5,116.24 1 1
petstore/internal/repository/pet/pet.go:107.19,109.6 1 0
petstore/internal/repository/pet/pet.go:112.19,114.6 1 0
petstore/internal/repository/pet/pet.go:119.101,124.19 4 1
petstore/internal/repository/pet/pet.go:128.5,129.19 2 1
petstore/internal/repository/pet/pet.go:133.5,133.15 1 1
petstore/internal/repository/pet/pet.go:124.19,126.6 1 0
petstore/internal/repository/pet/pet.go:129.19,131.6 1 0
petstore/internal/repository/pet/pet.go:136.80,140.19 4 1
petstore/internal/repository/pet/pet.go:144.5,145.19 2 1
petstore/internal/repository/pet/pet.go:148.5,148.15 1 1
petstore/internal/repository/pet/pet.go:140.19,142.6 1 0
petstore/internal/repository/pet/pet.go:145.19,147.6 1 0
